%YAML 1.1
%TAG !u! tag:unity3d.com,2011:
--- !u!1045 &1
EditorBuildSettings:
  m_ObjectHideFlags: 0
  serializedVersion: 2
  m_Scenes:
  - enabled: 1
    path: Assets/Scenes/Inicio.unity
    guid: ddbdfb7785d46c445bc83342011d3d7a
  - enabled: 1
    path: Assets/Scenes/Sombis.unity
    guid: 9fc0d4010bbf28b4594072e72b8655ab
  - enabled: 1
    path: Assets/Scenes/Muerte.unity
    guid: 0bea05a720866a0459ff6b0f4b46a076
  m_configObjects: {}
