%YAML 1.1
%TAG !u! tag:unity3d.com,2011:
--- !u!65 &4409065822658129119
BoxCollider:
  m_ObjectHideFlags: 0
  m_CorrespondingSourceObject: {fileID: 0}
  m_PrefabInstance: {fileID: 0}
  m_PrefabAsset: {fileID: 0}
  m_GameObject: {fileID: 3288606731803446508}
  m_Material: {fileID: 0}
  m_IsTrigger: 0
  m_Enabled: 1
  serializedVersion: 2
  m_Size: {x: 2.2834115, y: 3.0000014, z: 2.9059172}
  m_Center: {x: 1.117007, y: -1.5000007, z: 1.0248646}
--- !u!1001 &6810172095861167589
PrefabInstance:
  m_ObjectHideFlags: 0
  serializedVersion: 2
  m_Modification:
    m_TransformParent: {fileID: 0}
    m_Modifications:
    - target: {fileID: -4216859302048453862, guid: 45a64b3ac464b0c4c9c31f3e423b0193,
        type: 3}
      propertyPath: m_LocalPosition.x
      value: 4
      objectReference: {fileID: 0}
    - target: {fileID: -4216859302048453862, guid: 45a64b3ac464b0c4c9c31f3e423b0193,
        type: 3}
      propertyPath: m_LocalPosition.y
      value: 0
      objectReference: {fileID: 0}
    - target: {fileID: -4216859302048453862, guid: 45a64b3ac464b0c4c9c31f3e423b0193,
        type: 3}
      propertyPath: m_LocalPosition.z
      value: 2
      objectReference: {fileID: 0}
    - target: {fileID: -4216859302048453862, guid: 45a64b3ac464b0c4c9c31f3e423b0193,
        type: 3}
      propertyPath: m_LocalRotation.x
      value: 0.7071068
      objectReference: {fileID: 0}
    - target: {fileID: -4216859302048453862, guid: 45a64b3ac464b0c4c9c31f3e423b0193,
        type: 3}
      propertyPath: m_LocalRotation.y
      value: 0.00000019861236
      objectReference: {fileID: 0}
    - target: {fileID: -4216859302048453862, guid: 45a64b3ac464b0c4c9c31f3e423b0193,
        type: 3}
      propertyPath: m_LocalRotation.z
      value: 0.7071068
      objectReference: {fileID: 0}
    - target: {fileID: -4216859302048453862, guid: 45a64b3ac464b0c4c9c31f3e423b0193,
        type: 3}
      propertyPath: m_LocalRotation.w
      value: 0.00000019861236
      objectReference: {fileID: 0}
    - target: {fileID: -4216859302048453862, guid: 45a64b3ac464b0c4c9c31f3e423b0193,
        type: 3}
      propertyPath: m_RootOrder
      value: 0
      objectReference: {fileID: 0}
    - target: {fileID: -4216859302048453862, guid: 45a64b3ac464b0c4c9c31f3e423b0193,
        type: 3}
      propertyPath: m_LocalEulerAnglesHint.x
      value: 0
      objectReference: {fileID: 0}
    - target: {fileID: -4216859302048453862, guid: 45a64b3ac464b0c4c9c31f3e423b0193,
        type: 3}
      propertyPath: m_LocalEulerAnglesHint.y
      value: 90
      objectReference: {fileID: 0}
    - target: {fileID: -4216859302048453862, guid: 45a64b3ac464b0c4c9c31f3e423b0193,
        type: 3}
      propertyPath: m_LocalEulerAnglesHint.z
      value: 179.99998
      objectReference: {fileID: 0}
    - target: {fileID: -1504981713932161579, guid: 45a64b3ac464b0c4c9c31f3e423b0193,
        type: 3}
      propertyPath: m_Materials.Array.data[0]
      value: 
      objectReference: {fileID: 2100000, guid: 55e8f7aa235f9fe4f906087dbad2555a, type: 2}
    - target: {fileID: -1504981713932161579, guid: 45a64b3ac464b0c4c9c31f3e423b0193,
        type: 3}
      propertyPath: m_CastShadows
      value: 2
      objectReference: {fileID: 0}
    - target: {fileID: -927199367670048503, guid: 45a64b3ac464b0c4c9c31f3e423b0193,
        type: 3}
      propertyPath: m_Name
      value: 04_Esquina
      objectReference: {fileID: 0}
    m_RemovedComponents: []
  m_SourcePrefab: {fileID: 100100000, guid: 45a64b3ac464b0c4c9c31f3e423b0193, type: 3}
--- !u!1 &3288606731803446508 stripped
GameObject:
  m_CorrespondingSourceObject: {fileID: -927199367670048503, guid: 45a64b3ac464b0c4c9c31f3e423b0193,
    type: 3}
  m_PrefabInstance: {fileID: 6810172095861167589}
  m_PrefabAsset: {fileID: 0}
