%YAML 1.1
%TAG !u! tag:unity3d.com,2011:
--- !u!65 &2561535976724223447
BoxCollider:
  m_ObjectHideFlags: 0
  m_CorrespondingSourceObject: {fileID: 0}
  m_PrefabInstance: {fileID: 0}
  m_PrefabAsset: {fileID: 0}
  m_GameObject: {fileID: 5544128265545454210}
  m_Material: {fileID: 0}
  m_IsTrigger: 0
  m_Enabled: 1
  serializedVersion: 2
  m_Size: {x: 3.2261581, y: 3, z: 1.1050808}
  m_Center: {x: 0.88784623, y: -1.5, z: -0.28839815}
--- !u!1001 &4598560456620460939
PrefabInstance:
  m_ObjectHideFlags: 0
  serializedVersion: 2
  m_Modification:
    m_TransformParent: {fileID: 0}
    m_Modifications:
    - target: {fileID: -4216859302048453862, guid: f3b1a789e4a26b94b899ab6c7b9218b5,
        type: 3}
      propertyPath: m_LocalPosition.x
      value: 11.872061
      objectReference: {fileID: 0}
    - target: {fileID: -4216859302048453862, guid: f3b1a789e4a26b94b899ab6c7b9218b5,
        type: 3}
      propertyPath: m_LocalPosition.y
      value: -1.97
      objectReference: {fileID: 0}
    - target: {fileID: -4216859302048453862, guid: f3b1a789e4a26b94b899ab6c7b9218b5,
        type: 3}
      propertyPath: m_LocalPosition.z
      value: 23.08781
      objectReference: {fileID: 0}
    - target: {fileID: -4216859302048453862, guid: f3b1a789e4a26b94b899ab6c7b9218b5,
        type: 3}
      propertyPath: m_LocalRotation.x
      value: -1
      objectReference: {fileID: 0}
    - target: {fileID: -4216859302048453862, guid: f3b1a789e4a26b94b899ab6c7b9218b5,
        type: 3}
      propertyPath: m_LocalRotation.y
      value: 0.00000028088027
      objectReference: {fileID: 0}
    - target: {fileID: -4216859302048453862, guid: f3b1a789e4a26b94b899ab6c7b9218b5,
        type: 3}
      propertyPath: m_LocalRotation.z
      value: -0
      objectReference: {fileID: 0}
    - target: {fileID: -4216859302048453862, guid: f3b1a789e4a26b94b899ab6c7b9218b5,
        type: 3}
      propertyPath: m_LocalRotation.w
      value: 0
      objectReference: {fileID: 0}
    - target: {fileID: -4216859302048453862, guid: f3b1a789e4a26b94b899ab6c7b9218b5,
        type: 3}
      propertyPath: m_RootOrder
      value: 0
      objectReference: {fileID: 0}
    - target: {fileID: -4216859302048453862, guid: f3b1a789e4a26b94b899ab6c7b9218b5,
        type: 3}
      propertyPath: m_LocalEulerAnglesHint.x
      value: 0
      objectReference: {fileID: 0}
    - target: {fileID: -4216859302048453862, guid: f3b1a789e4a26b94b899ab6c7b9218b5,
        type: 3}
      propertyPath: m_LocalEulerAnglesHint.y
      value: 180
      objectReference: {fileID: 0}
    - target: {fileID: -4216859302048453862, guid: f3b1a789e4a26b94b899ab6c7b9218b5,
        type: 3}
      propertyPath: m_LocalEulerAnglesHint.z
      value: -179.99998
      objectReference: {fileID: 0}
    - target: {fileID: -1504981713932161579, guid: f3b1a789e4a26b94b899ab6c7b9218b5,
        type: 3}
      propertyPath: m_Materials.Array.data[0]
      value: 
      objectReference: {fileID: 2100000, guid: a022083311c439c458aa2d08f2afa9ba, type: 2}
    - target: {fileID: -1504981713932161579, guid: f3b1a789e4a26b94b899ab6c7b9218b5,
        type: 3}
      propertyPath: m_CastShadows
      value: 2
      objectReference: {fileID: 0}
    - target: {fileID: -927199367670048503, guid: f3b1a789e4a26b94b899ab6c7b9218b5,
        type: 3}
      propertyPath: m_Name
      value: 05_ParedColumna
      objectReference: {fileID: 0}
    m_RemovedComponents: []
  m_SourcePrefab: {fileID: 100100000, guid: f3b1a789e4a26b94b899ab6c7b9218b5, type: 3}
--- !u!1 &5544128265545454210 stripped
GameObject:
  m_CorrespondingSourceObject: {fileID: -927199367670048503, guid: f3b1a789e4a26b94b899ab6c7b9218b5,
    type: 3}
  m_PrefabInstance: {fileID: 4598560456620460939}
  m_PrefabAsset: {fileID: 0}
