%YAML 1.1
%TAG !u! tag:unity3d.com,2011:
--- !u!1001 &5874543995341872699
PrefabInstance:
  m_ObjectHideFlags: 0
  serializedVersion: 2
  m_Modification:
    m_TransformParent: {fileID: 0}
    m_Modifications:
    - target: {fileID: -4216859302048453862, guid: bb9eca0cd1e6448449abdb85e9264e80,
        type: 3}
      propertyPath: m_LocalPosition.x
      value: 5.6
      objectReference: {fileID: 0}
    - target: {fileID: -4216859302048453862, guid: bb9eca0cd1e6448449abdb85e9264e80,
        type: 3}
      propertyPath: m_LocalPosition.y
      value: 0.765
      objectReference: {fileID: 0}
    - target: {fileID: -4216859302048453862, guid: bb9eca0cd1e6448449abdb85e9264e80,
        type: 3}
      propertyPath: m_LocalPosition.z
      value: 0.099
      objectReference: {fileID: 0}
    - target: {fileID: -4216859302048453862, guid: bb9eca0cd1e6448449abdb85e9264e80,
        type: 3}
      propertyPath: m_LocalRotation.x
      value: -0
      objectReference: {fileID: 0}
    - target: {fileID: -4216859302048453862, guid: bb9eca0cd1e6448449abdb85e9264e80,
        type: 3}
      propertyPath: m_LocalRotation.y
      value: -0
      objectReference: {fileID: 0}
    - target: {fileID: -4216859302048453862, guid: bb9eca0cd1e6448449abdb85e9264e80,
        type: 3}
      propertyPath: m_LocalRotation.z
      value: -0
      objectReference: {fileID: 0}
    - target: {fileID: -4216859302048453862, guid: bb9eca0cd1e6448449abdb85e9264e80,
        type: 3}
      propertyPath: m_LocalRotation.w
      value: 1
      objectReference: {fileID: 0}
    - target: {fileID: -4216859302048453862, guid: bb9eca0cd1e6448449abdb85e9264e80,
        type: 3}
      propertyPath: m_RootOrder
      value: 0
      objectReference: {fileID: 0}
    - target: {fileID: -4216859302048453862, guid: bb9eca0cd1e6448449abdb85e9264e80,
        type: 3}
      propertyPath: m_LocalEulerAnglesHint.x
      value: 0
      objectReference: {fileID: 0}
    - target: {fileID: -4216859302048453862, guid: bb9eca0cd1e6448449abdb85e9264e80,
        type: 3}
      propertyPath: m_LocalEulerAnglesHint.y
      value: 0
      objectReference: {fileID: 0}
    - target: {fileID: -4216859302048453862, guid: bb9eca0cd1e6448449abdb85e9264e80,
        type: 3}
      propertyPath: m_LocalEulerAnglesHint.z
      value: 0
      objectReference: {fileID: 0}
    - target: {fileID: -1504981713932161579, guid: bb9eca0cd1e6448449abdb85e9264e80,
        type: 3}
      propertyPath: m_Materials.Array.data[0]
      value: 
      objectReference: {fileID: 2100000, guid: 499349db4beadbc4fb59073b753ed947, type: 2}
    - target: {fileID: -1504981713932161579, guid: bb9eca0cd1e6448449abdb85e9264e80,
        type: 3}
      propertyPath: m_CastShadows
      value: 2
      objectReference: {fileID: 0}
    - target: {fileID: -927199367670048503, guid: bb9eca0cd1e6448449abdb85e9264e80,
        type: 3}
      propertyPath: m_Name
      value: 09_barraderecha
      objectReference: {fileID: 0}
    m_RemovedComponents: []
  m_SourcePrefab: {fileID: 100100000, guid: bb9eca0cd1e6448449abdb85e9264e80, type: 3}
